{
  "client": [
    {
      "services": {
        "appinvite_service": {
          "status": 1
        }, 
        "analytics_service": {
          "status": 0
        }
      }, 
      "oauth_client": [
        {
          "client_id": "298263094461-c5a3500kb6li2uk9qb62ebigorb1bi6j.apps.googleusercontent.com"
        }
      ], 
      "api_key": [
        {
          "current_key": "AIzaSyAeAbW7PX4h8z0LVGgc-RASgtWC5ymzAYA"
        }
      ], 
      "client_info": {
        "mobilesdk_app_id": "1:298263094461:ios:32aea49b6e4f78c2e703d4", 
        "android_client_info": {
          "package_name": "com.idle.printer3d"
        }
      }
    }
  ], 
  "configuration_version": "1", 
  "project_info": {
    "storage_bucket": "idle3dprinter.appspot.com", 
    "project_id": "idle3dprinter", 
    "firebase_url": "https://idle3dprinter.firebaseio.com", 
    "project_number": "298263094461"
  }
}